<?xml version="1.0" encoding="UTF-8" standalone="no"?>
<!-- Created with Inkscape (http://www.inkscape.org/) -->

<svg
   xmlns:dc="http://purl.org/dc/elements/1.1/"
   xmlns:cc="http://creativecommons.org/ns#"
   xmlns:rdf="http://www.w3.org/1999/02/22-rdf-syntax-ns#"
   xmlns:svg="http://www.w3.org/2000/svg"
   xmlns="http://www.w3.org/2000/svg"
   version="1.1"
   width="246.87993"
   height="223.51027"
   viewBox="0 0 246.87994 223.51028"
   id="svg2"
   xml:space="preserve">
  <style>g.area, path.area {fill: #CBCCCC;}</style><metadata
     id="metadata102"><rdf:RDF><cc:Work
         rdf:about=""><dc:format>image/svg+xml</dc:format><dc:type
           rdf:resource="http://purl.org/dc/dcmitype/StillImage" /><dc:title></dc:title></cc:Work></rdf:RDF></metadata><defs
     id="defs100" /><style
     id="style5" /><g
     transform="matrix(1.14,0,0,1,-21.544732,-59.165877)"
     id="Australien_Kontor1"><path
       d="M 150.5,101.828 150.844,102.172 C 150.844,102.172 152.193,105.022 154.38,104.917 156.567,104.812 157.241,108.25 157.513,109.125 157.785,110 160.912,109.333 161.392,109.125 161.392,109.125 161.999,108.687 162.415,108.708 162.415,108.708 162.603,108.75 162.561,107.604 162.519,106.458 163.29,104.895 163.79,104.5 164.29,104.105 163.936,101.042 163.936,101.042 163.936,101.042 164.603,100.293 165.374,99.876 166.145,99.459 165.936,93.314 165.562,91.23 165.562,91.23 165.042,85.188 165.521,84.876 166,84.564 166.855,84.022 166.833,81.334 166.811,78.646 167.415,70.251 167.749,70.146 168.083,70.041 169.916,70.292 169.916,70.292 169.916,70.292 172.957,74.417 174.124,78.313 175.291,82.209 176.103,85.771 176.103,89.521 176.103,89.521 176.185,89.788 176.457,89.842 176.457,89.842 177.019,90.229 177.082,90.5 177.082,90.5 177.75,91.167 177.728,89.667 177.728,89.667 177.728,88.667 179.728,88.479 179.728,88.479 180.498,88.291 180.415,90.104 180.415,90.104 180.186,90.458 180.727,90.437 180.727,90.437 181.644,91.27 181.769,91.937 181.769,91.937 182.54,92.062 183.394,92.041 184.248,92.02 184.706,91.394 183.915,99.561 183.915,99.561 183.749,101.957 186.082,103.686 186.082,103.686 188.019,105.373 187.853,109.436 187.687,113.499 187.289,116.478 189.748,117.811 192.207,119.144 199.644,122.853 199.644,122.853 199.644,122.853 200.31,123.79 200.31,124.436 200.31,125.082 200.935,125.603 200.06,126.415 200.06,126.415 198.559,127.686 200.226,127.373 201.893,127.06 202.978,129.998 202.956,131.061 202.934,132.124 202.956,135.582 202.956,135.582 202.956,135.582 202.726,136.374 203.622,136.374 204.518,136.374 208.455,138.874 208.56,139.27 208.665,139.666 208.062,146.416 210.54,147.02 213.018,147.624 213.664,149.061 213.706,149.52 213.748,149.979 213.268,152.061 214.331,152.52 215.394,152.979 218.56,154.98 218.622,157.438 218.684,159.896 218.06,166.709 217.622,167.48"
       id="_x31__6_"
       style="fill:none;stroke:#e5e5e5;stroke-width:20;stroke-miterlimit:1" /><path
       d="M 155.812,101.516 C 155.812,101.516 157.546,100.985 157.343,102.797 157.14,104.609 156.999,104.766 155.812,103.266 154.625,101.766 155.297,101.587 155.812,101.516 z"
       id="path8"
       style="fill:none;stroke:#e5e5e5;stroke-width:20;stroke-miterlimit:1" /><path
       d="M 150.5,101.828 C 150.5,101.828 149.031,98.625 146.906,98.594 144.781,98.563 142.781,98.063 142.812,97.188 142.843,96.313 140.624,94.813 139.031,94.563 139.031,94.563 138.531,94.407 138.531,92.938 138.531,91.469 138.469,89.75 139.093,89.282 139.717,88.814 140.124,88.313 140.124,86.907 140.124,86.907 140.249,85.282 140.062,84.782 140.062,84.782 139.5,84.47 141.968,84.532 141.968,84.532 142.78,84.751 142.812,83.626 142.844,82.501 141.718,80.845 142.843,80.438 142.843,80.438 144.781,80.126 144.218,78.063 144.218,78.063 143.406,76.782 143.812,76.344 143.812,76.344 145.187,75.188 140.781,77.094 140.781,77.094 139.781,77.875 139.593,77.094 139.593,77.094 139.905,75.656 137.499,76.188 135.093,76.72 130.218,75.532 129.437,74.75 129.437,74.75 128.278,73.688 128.342,73.406 128.342,73.406 128.25,72.812 126.875,73.937 126.875,73.937 126.125,75.593 124.969,73.562 124.969,73.562 122.75,71 120.344,71.624 120.344,71.624 119.156,72.686 121.906,74.03 124.656,75.374 125.625,76.374 125.531,76.874 125.437,77.374 125.312,78.405 124.562,77.686 123.812,76.967 124.187,78.061 124.156,78.655 124.125,79.249 123.656,79.467 122.437,78.467 121.218,77.467 118.187,76.811 117.843,76.842 117.499,76.873 116.593,77.092 116.468,78.186 116.343,79.28 115.374,78.592 115.187,78.124 115,77.656 113.843,76.343 113.499,80.093 113.499,80.093 112.811,82.593 113.343,83.624 113.343,83.624 113.999,84.186 112.593,83.936 112.593,83.936 111.187,83.342 111.124,85.592 111.124,85.592 111.686,87.717 109.78,88.342 109.78,88.342 107.78,88.592 108.78,90.342 108.78,90.342 111.374,92.654 109.499,93.092 109.499,93.092 107.124,93.467 106.999,92.873 L 106.277,92.052"
       id="Gebiet_5_2_"
       style="fill:none;stroke:#e5e5e5;stroke-width:20;stroke-miterlimit:1" /><path
       d="M 141.5,86.484 C 141.5,86.484 141.266,90.156 142.297,89.531 143.328,88.906 145.094,88.043 145.094,88.043 145.094,88.043 144.344,86.906 144.282,86.765 144.22,86.624 143.438,84.999 142.704,85.718 141.97,86.437 141.5,86.484 141.5,86.484 z"
       id="path11"
       style="fill:none;stroke:#e5e5e5;stroke-width:20;stroke-miterlimit:1" /><path
       d="M 217.622,167.481 C 217.622,167.481 218.766,169.109 219.125,170.168 219.125,170.168 221.172,174.391 220.891,176.906 220.891,176.906 220.485,179.234 219.86,179.875 219.86,179.875 218.583,179.984 218.628,181.141 218.673,182.298 219.345,193.938 218.048,195.188 218.048,195.188 216.36,195.907 216.329,196.313 216.298,196.719 217.485,199.063 214.923,200.063 214.923,200.063 211.423,201.516 211.423,202.86 211.423,202.86 211.97,204.501 210.564,204.516 210.564,204.516 209.08,203.985 209.142,205.782 209.204,207.579 210.293,210.21 208.626,212.335 206.959,214.46 205.958,217.314 205.605,219.793 205.252,222.272 206.146,224.398 204.23,225.044 202.314,225.69 202.584,227.086 204.084,227.856 205.584,228.626 205.938,228.46 205.146,230.023 205.146,230.023 204.042,231.829 203.292,231.267"
       id="Gebiet_4_1_"
       style="fill:none;stroke:#e5e5e5;stroke-width:20;stroke-miterlimit:1" /><path
       d="M 161.5,236 C 161.5,236 165.75,237.828 166.344,236.188 166.938,234.548 167.953,235.844 168.406,237.094 168.859,238.344 174.359,244.219 177.109,237.36 177.109,237.36 178.093,236.266 179.218,236.251 179.218,236.251 180.234,236.329 179.874,237.017 179.874,237.017 182.78,236.408 183.327,236.22 183.874,236.032 184.389,236.423 182.639,237.408 180.889,238.393 182.045,238.346 183.905,239.283 185.765,240.22 186.889,240.252 186.827,242.111 186.765,243.97 188.296,242.127 188.233,240.986 188.233,240.986 188.045,240.627 189.092,240.674 190.139,240.721 192.545,240.205 193.389,235.783 193.389,235.783 193.858,233.392 195.327,233.408 196.796,233.424 202.327,233.47 202.327,233.47 202.327,233.47 203.827,231.658 203.29,231.268"
       id="_x31__1_"
       style="fill:none;stroke:#e5e5e5;stroke-width:20;stroke-miterlimit:1" /><path
       d="M 173.792,245.876 175.021,248.647 C 175.021,248.647 176.688,246.668 176.021,245.459 175.354,244.25 174.542,245.022 173.792,245.876 z"
       id="path15"
       style="fill:none;stroke:#e5e5e5;stroke-width:20;stroke-miterlimit:1" /><path
       d="M 193.646,246.741 C 193.646,246.741 193.625,250.312 195.625,250.187 197.625,250.062 196.188,247.962 193.646,246.741 z"
       id="path17"
       style="fill:none;stroke:#e5e5e5;stroke-width:20;stroke-miterlimit:1" /><path
       d="M 177.918,253.833 C 177.918,253.833 178.564,252.145 178.564,251.771 178.564,251.397 189.71,257.229 195.502,252.979 195.502,252.979 197.523,260.583 195.814,261.458 195.814,261.458 193.084,261.435 194.543,266.456 194.543,266.456 195.877,270.249 192.96,268.852 192.96,268.852 191.731,266.248 191.148,268.727 191.148,268.727 190.107,273.415 185.94,271.06 185.94,271.06 186.086,269.186 184.898,268.414 184.898,268.414 179.94,264.289 183.023,262.289 183.023,262.289 183.815,261.914 181.752,261.56 181.752,261.56 180.293,260.872 179.793,257.706 179.793,257.706 178.688,254.105 177.918,253.833 z"
       id="path19"
       style="fill:none;stroke:#e5e5e5;stroke-width:20;stroke-miterlimit:1" /><path
       d="M 161.5,236 C 161.5,236 159.156,236.109 158.438,232.344 158.438,232.344 159.219,231.594 156.516,230.625 156.516,230.625 156.282,230.297 156.328,229.344 156.374,228.391 157.062,225.906 154.594,218.125 154.594,218.125 154.797,217.391 153.672,217.953 152.547,218.515 148.938,220.437 150.703,217.187 150.703,217.187 151.601,212.875 148.961,210.906 148.961,210.906 148.566,210.312 149.098,209.89 149.098,209.89 148.604,208.671 147.869,210.249 147.869,210.249 147.578,211.921 147.562,212.64 147.562,212.64 147.624,213.109 146.781,213.578 145.938,214.047 142.922,215.953 143.047,214.828 143.047,214.828 142.953,213.252 143.781,213.079 144.609,212.906 146.265,212.547 145.719,211.5 145.173,210.453 145.141,208.422 145.797,207.672 146.453,206.922 149.766,199.375 146.375,202.328 146.375,202.328 145.844,205.531 143.5,205.234 143.5,205.234 142.531,204.718 141.031,207.484 141.031,207.484 138.812,211.593 137.781,210.843 137.781,210.843 136.515,210.296 136.047,210.343 136.047,210.343 134.641,207.718 134.656,206.531 134.656,206.531 135.094,202.75 133.281,202.765 133.281,202.765 130.484,202.827 130.625,201.921 130.625,201.921 129.891,200.687 130.453,200.171 130.453,200.171 132.203,198.812 130.5,198.905 128.797,198.998 128.219,198.421 129.203,197.421 130.187,196.421 128.515,195.812 127.609,195.624 126.703,195.436 123.765,195.577 123.062,195.858 122.359,196.139 121.031,195.639 120.624,194.78 120.217,193.921 119.749,191.374 115.374,192.046 110.999,192.718 107.796,194.155 106.562,194.608"
       id="Gebiet_2_1_"
       style="fill:none;stroke:#e5e5e5;stroke-width:20;stroke-miterlimit:1" /><path
       d="M 106.562,194.609 C 106.562,194.609 97.374,198.562 94.343,196.812 94.343,196.812 93.187,195.968 93.031,196.937 93.031,196.937 93.187,197.144 92.375,197.259 92.375,197.259 91.875,197.749 91.656,199.155 91.656,199.155 91.515,199.483 90,199.608 90,199.608 88.656,199.264 88.688,200.796 88.688,200.796 88.907,202.249 87.672,201.749 87.672,201.749 85.516,200.374 84.828,201.671 84.828,201.671 83.547,204.28 83.328,205.202 83.328,205.202 82.781,206.718 81.422,206.702 81.422,206.702 79.75,206.749 79.063,206.061 79.063,206.061 78.516,205.67 77.735,206.311 77.735,206.311 75.469,208.092 75.032,207.061 75.032,207.061 74.313,205.467 73.126,206.139 73.126,206.139 67.642,207.905 65.142,208.03 65.142,208.03 63.314,207.905 62.986,207.639 62.986,207.639 62.767,208.327 63.142,209.842 63.142,209.842 63.048,212.467 60.736,210.467 60.736,210.467 59.845,209.373 59.767,209.201 59.689,209.029 59.126,209.08 58.283,211.219 58.283,211.219 56.955,214.483 53.814,213.905 53.814,213.905 51.892,212.093 50.517,212.593 49.142,213.093 46.892,212.812 46.658,211.781 46.424,210.75 46.642,209.781 45.08,209.703 43.518,209.625 42.236,208.469 42.033,207.656 41.83,206.843 40.517,205.265 41.924,205.265 43.331,205.265 44.893,205.64 44.955,204.515 45.017,203.39 45.549,194.031 45.549,194.031 45.549,194.031 45.377,193.672 45.096,193.672 44.815,193.672 44.768,193.219 44.752,192.594 44.736,191.969 44.955,186.953 43.549,186.797 42.143,186.641 42.377,183.688 42.361,182.828 42.345,181.968 42.595,176.609 40.58,175.531 40.58,175.531 40.08,174.843 40.955,174.234 41.83,173.625 40.986,172.937 40.267,172.578 39.548,172.219 37.876,171.953 38.251,168.75 38.251,168.75 39.032,166.594 36.595,164.719 34.158,162.844 33.923,162.297 33.97,161.61 34.017,160.923 33.892,160.204 34.97,160.844 36.048,161.484 38.861,162.61 36.845,160.719 34.829,158.828 34.626,158.797 34.564,159.078 34.502,159.359 34.257,160.625 33.965,159.672 33.673,158.719 33.329,156.922 33.751,157.016 34.173,157.11 34.485,157.235 34.704,156.672 34.923,156.109 36,155.688 36,156.812 36,157.936 35.828,158.781 36.906,158.671 37.984,158.561 37.625,157.983 37.625,157.171 37.625,156.359 37.172,150.593 34.906,149.655 34.906,149.655 32.656,146.639 33.734,146.03 34.812,145.421 36.968,144.483 36.187,141.436 35.406,138.389 35.343,136.936 35.781,136.358 36.219,135.78 36.469,134.999 36.484,134.67 36.499,134.341 37.39,134.108 37.859,133.936 38.328,133.764 38.187,134.795 37.906,135.436 37.625,136.077 38.062,135.952 39.015,134.874 39.968,133.796 45.281,128.936 46.609,128.358 46.609,128.358 46.921,127.889 46.953,127.53 46.985,127.171 47.406,127.311 47.937,127.327 48.468,127.343 49.906,127.921 50.062,126.671 50.218,125.421 51.093,124.827 52.39,125.452 53.687,126.077 55.015,126.046 55.437,125.311 55.859,124.576 56.296,124.483 57.046,124.467 57.796,124.451 59.327,123.967 59.702,122.67 60.077,121.373 61.124,120.045 62.296,121.467 62.296,121.467 63.015,122.217 63.593,120.326 63.593,120.326 63.89,119.904 65.452,119.81 67.014,119.716 71.655,119.372 71.89,116.763 71.89,116.763 71.812,115.044 73.406,114.029 73.406,114.029 76.625,112.388 76.015,111.513 76.015,111.513 75.171,108.591 76.015,107.325 76.859,106.059 76.499,104.591 76.515,103.934 76.531,103.277 77.281,103.215 77.656,103.106 78.031,102.997 79.25,101.997 79.312,101.653 79.374,101.309 79.953,101.403 80.093,102.387 80.233,103.371 82.218,107.231 82.874,105.684 83.53,104.137 83.265,103.84 82.39,104.231 82.39,104.231 82.421,103.215 82.437,102.262 82.453,101.309 82.016,99.375 83,98.672 83,98.672 84.016,97.391 85.109,98.672 86.202,99.953 86.812,99.625 86.64,98.328 86.468,97.031 86.499,96.031 87.531,95.109 87.531,95.109 88.219,94.515 88.265,94.234 88.311,93.953 88.765,94.328 89.39,95.015 90.015,95.702 90.546,95.515 89.968,94.468 89.39,93.421 89.484,93.452 90.593,93.452 91.702,93.452 91.655,92.921 91.281,91.952 91.281,91.952 90.656,90.436 91.656,90.514 92.656,90.592 92.015,90.217 91.859,89.764 91.703,89.311 91.734,89.061 92.937,89.139 94.14,89.217 94.453,88.592 94.687,87.608 94.921,86.624 95.625,86.749 96.484,86.749 97.343,86.749 99.812,86.343 99.922,86.171 100.032,85.999 100.391,86.718 100.5,87.265 100.609,87.812 101.062,88.827 101.578,89.046 102.094,89.265 103.328,91.046 103.219,91.608 103.11,92.17 102.125,96.014 103.266,95.264 104.407,94.514 104.047,94.295 103.907,93.655 103.767,93.015 103.938,92.014 104.532,92.03 105.126,92.046 106.279,92.052 106.279,92.052"
       id="Gebiet_1_1_"
       style="fill:none;stroke:#e5e5e5;stroke-width:20;stroke-miterlimit:1" /></g><g
     transform="matrix(1.14,0,0,1,-21.544732,-59.165877)"
     id="Australien_Kontur2"><path
       d="M 150.5,101.828 150.844,102.172 C 150.844,102.172 152.193,105.022 154.38,104.917 156.567,104.812 157.241,108.25 157.513,109.125 157.785,110 160.912,109.333 161.392,109.125 161.392,109.125 161.999,108.687 162.415,108.708 162.415,108.708 162.603,108.75 162.561,107.604 162.519,106.458 163.29,104.895 163.79,104.5 164.29,104.105 163.936,101.042 163.936,101.042 163.936,101.042 164.603,100.293 165.374,99.876 166.145,99.459 165.936,93.314 165.562,91.23 165.562,91.23 165.042,85.188 165.521,84.876 166,84.564 166.855,84.022 166.833,81.334 166.811,78.646 167.415,70.251 167.749,70.146 168.083,70.041 169.916,70.292 169.916,70.292 169.916,70.292 172.957,74.417 174.124,78.313 175.291,82.209 176.103,85.771 176.103,89.521 176.103,89.521 176.185,89.788 176.457,89.842 176.457,89.842 177.019,90.229 177.082,90.5 177.082,90.5 177.75,91.167 177.728,89.667 177.728,89.667 177.728,88.667 179.728,88.479 179.728,88.479 180.498,88.291 180.415,90.104 180.415,90.104 180.186,90.458 180.727,90.437 180.727,90.437 181.644,91.27 181.769,91.937 181.769,91.937 182.54,92.062 183.394,92.041 184.248,92.02 184.706,91.394 183.915,99.561 183.915,99.561 183.749,101.957 186.082,103.686 186.082,103.686 188.019,105.373 187.853,109.436 187.687,113.499 187.289,116.478 189.748,117.811 192.207,119.144 199.644,122.853 199.644,122.853 199.644,122.853 200.31,123.79 200.31,124.436 200.31,125.082 200.935,125.603 200.06,126.415 200.06,126.415 198.559,127.686 200.226,127.373 201.893,127.06 202.978,129.998 202.956,131.061 202.934,132.124 202.956,135.582 202.956,135.582 202.956,135.582 202.726,136.374 203.622,136.374 204.518,136.374 208.455,138.874 208.56,139.27 208.665,139.666 208.062,146.416 210.54,147.02 213.018,147.624 213.664,149.061 213.706,149.52 213.748,149.979 213.268,152.061 214.331,152.52 215.394,152.979 218.56,154.98 218.622,157.438 218.684,159.896 218.06,166.709 217.622,167.48"
       id="_x31__4_"
       style="fill:none;stroke:#b7b7b7;stroke-width:10;stroke-miterlimit:1" /><path
       d="M 155.812,101.516 C 155.812,101.516 157.546,100.985 157.343,102.797 157.14,104.609 156.999,104.766 155.812,103.266 154.625,101.766 155.297,101.587 155.812,101.516 z"
       id="path25"
       style="fill:none;stroke:#b7b7b7;stroke-width:10;stroke-miterlimit:1" /><path
       d="M 150.5,101.828 C 150.5,101.828 149.031,98.625 146.906,98.594 144.781,98.563 142.781,98.063 142.812,97.188 142.843,96.313 140.624,94.813 139.031,94.563 139.031,94.563 138.531,94.407 138.531,92.938 138.531,91.469 138.469,89.75 139.093,89.282 139.717,88.814 140.124,88.313 140.124,86.907 140.124,86.907 140.249,85.282 140.062,84.782 140.062,84.782 139.5,84.47 141.968,84.532 141.968,84.532 142.78,84.751 142.812,83.626 142.844,82.501 141.718,80.845 142.843,80.438 142.843,80.438 144.781,80.126 144.218,78.063 144.218,78.063 143.406,76.782 143.812,76.344 143.812,76.344 145.187,75.188 140.781,77.094 140.781,77.094 139.781,77.875 139.593,77.094 139.593,77.094 139.905,75.656 137.499,76.188 135.093,76.72 130.218,75.532 129.437,74.75 129.437,74.75 128.278,73.688 128.342,73.406 128.342,73.406 128.25,72.812 126.875,73.937 126.875,73.937 126.125,75.593 124.969,73.562 124.969,73.562 122.75,71 120.344,71.624 120.344,71.624 119.156,72.686 121.906,74.03 124.656,75.374 125.625,76.374 125.531,76.874 125.437,77.374 125.312,78.405 124.562,77.686 123.812,76.967 124.187,78.061 124.156,78.655 124.125,79.249 123.656,79.467 122.437,78.467 121.218,77.467 118.187,76.811 117.843,76.842 117.499,76.873 116.593,77.092 116.468,78.186 116.343,79.28 115.374,78.592 115.187,78.124 115,77.656 113.843,76.343 113.499,80.093 113.499,80.093 112.811,82.593 113.343,83.624 113.343,83.624 113.999,84.186 112.593,83.936 112.593,83.936 111.187,83.342 111.124,85.592 111.124,85.592 111.686,87.717 109.78,88.342 109.78,88.342 107.78,88.592 108.78,90.342 108.78,90.342 111.374,92.654 109.499,93.092 109.499,93.092 107.124,93.467 106.999,92.873 L 106.277,92.052"
       id="Gebiet_5_3_"
       style="fill:none;stroke:#b7b7b7;stroke-width:10;stroke-miterlimit:1" /><path
       d="M 141.5,86.484 C 141.5,86.484 141.266,90.156 142.297,89.531 143.328,88.906 145.094,88.043 145.094,88.043 145.094,88.043 144.344,86.906 144.282,86.765 144.22,86.624 143.438,84.999 142.704,85.718 141.97,86.437 141.5,86.484 141.5,86.484 z"
       id="path28"
       style="fill:none;stroke:#b7b7b7;stroke-width:10;stroke-miterlimit:1" /><path
       d="M 217.622,167.481 C 217.622,167.481 218.766,169.109 219.125,170.168 219.125,170.168 221.172,174.391 220.891,176.906 220.891,176.906 220.485,179.234 219.86,179.875 219.86,179.875 218.583,179.984 218.628,181.141 218.673,182.298 219.345,193.938 218.048,195.188 218.048,195.188 216.36,195.907 216.329,196.313 216.298,196.719 217.485,199.063 214.923,200.063 214.923,200.063 211.423,201.516 211.423,202.86 211.423,202.86 211.97,204.501 210.564,204.516 210.564,204.516 209.08,203.985 209.142,205.782 209.204,207.579 210.293,210.21 208.626,212.335 206.959,214.46 205.958,217.314 205.605,219.793 205.252,222.272 206.146,224.398 204.23,225.044 202.314,225.69 202.584,227.086 204.084,227.856 205.584,228.626 205.938,228.46 205.146,230.023 205.146,230.023 204.042,231.829 203.292,231.267"
       id="Gebiet_4_2_"
       style="fill:none;stroke:#b7b7b7;stroke-width:10;stroke-miterlimit:1" /><path
       d="M 161.5,236 C 161.5,236 165.75,237.828 166.344,236.188 166.938,234.548 167.953,235.844 168.406,237.094 168.859,238.344 174.359,244.219 177.109,237.36 177.109,237.36 178.093,236.266 179.218,236.251 179.218,236.251 180.234,236.329 179.874,237.017 179.874,237.017 182.78,236.408 183.327,236.22 183.874,236.032 184.389,236.423 182.639,237.408 180.889,238.393 182.045,238.346 183.905,239.283 185.765,240.22 186.889,240.252 186.827,242.111 186.765,243.97 188.296,242.127 188.233,240.986 188.233,240.986 188.045,240.627 189.092,240.674 190.139,240.721 192.545,240.205 193.389,235.783 193.389,235.783 193.858,233.392 195.327,233.408 196.796,233.424 202.327,233.47 202.327,233.47 202.327,233.47 203.827,231.658 203.29,231.268"
       id="_x31__5_"
       style="fill:none;stroke:#b7b7b7;stroke-width:10;stroke-miterlimit:1" /><path
       d="M 173.792,245.876 175.021,248.647 C 175.021,248.647 176.688,246.668 176.021,245.459 175.354,244.25 174.542,245.022 173.792,245.876 z"
       id="path32"
       style="fill:none;stroke:#b7b7b7;stroke-width:10;stroke-miterlimit:1" /><path
       d="M 193.646,246.741 C 193.646,246.741 193.625,250.312 195.625,250.187 197.625,250.062 196.188,247.962 193.646,246.741 z"
       id="path34"
       style="fill:none;stroke:#b7b7b7;stroke-width:10;stroke-miterlimit:1" /><path
       d="M 177.918,253.833 C 177.918,253.833 178.564,252.145 178.564,251.771 178.564,251.397 189.71,257.229 195.502,252.979 195.502,252.979 197.523,260.583 195.814,261.458 195.814,261.458 193.084,261.435 194.543,266.456 194.543,266.456 195.877,270.249 192.96,268.852 192.96,268.852 191.731,266.248 191.148,268.727 191.148,268.727 190.107,273.415 185.94,271.06 185.94,271.06 186.086,269.186 184.898,268.414 184.898,268.414 179.94,264.289 183.023,262.289 183.023,262.289 183.815,261.914 181.752,261.56 181.752,261.56 180.293,260.872 179.793,257.706 179.793,257.706 178.688,254.105 177.918,253.833 z"
       id="path36"
       style="fill:none;stroke:#b7b7b7;stroke-width:10;stroke-miterlimit:1" /><path
       d="M 161.5,236 C 161.5,236 159.156,236.109 158.438,232.344 158.438,232.344 159.219,231.594 156.516,230.625 156.516,230.625 156.282,230.297 156.328,229.344 156.374,228.391 157.062,225.906 154.594,218.125 154.594,218.125 154.797,217.391 153.672,217.953 152.547,218.515 148.938,220.437 150.703,217.187 150.703,217.187 151.601,212.875 148.961,210.906 148.961,210.906 148.566,210.312 149.098,209.89 149.098,209.89 148.604,208.671 147.869,210.249 147.869,210.249 147.578,211.921 147.562,212.64 147.562,212.64 147.624,213.109 146.781,213.578 145.938,214.047 142.922,215.953 143.047,214.828 143.047,214.828 142.953,213.252 143.781,213.079 144.609,212.906 146.265,212.547 145.719,211.5 145.173,210.453 145.141,208.422 145.797,207.672 146.453,206.922 149.766,199.375 146.375,202.328 146.375,202.328 145.844,205.531 143.5,205.234 143.5,205.234 142.531,204.718 141.031,207.484 141.031,207.484 138.812,211.593 137.781,210.843 137.781,210.843 136.515,210.296 136.047,210.343 136.047,210.343 134.641,207.718 134.656,206.531 134.656,206.531 135.094,202.75 133.281,202.765 133.281,202.765 130.484,202.827 130.625,201.921 130.625,201.921 129.891,200.687 130.453,200.171 130.453,200.171 132.203,198.812 130.5,198.905 128.797,198.998 128.219,198.421 129.203,197.421 130.187,196.421 128.515,195.812 127.609,195.624 126.703,195.436 123.765,195.577 123.062,195.858 122.359,196.139 121.031,195.639 120.624,194.78 120.217,193.921 119.749,191.374 115.374,192.046 110.999,192.718 107.796,194.155 106.562,194.608"
       id="Gebiet_2_2_"
       style="fill:none;stroke:#b7b7b7;stroke-width:10;stroke-miterlimit:1" /><path
       d="M 106.562,194.609 C 106.562,194.609 97.374,198.562 94.343,196.812 94.343,196.812 93.187,195.968 93.031,196.937 93.031,196.937 93.187,197.144 92.375,197.259 92.375,197.259 91.875,197.749 91.656,199.155 91.656,199.155 91.515,199.483 90,199.608 90,199.608 88.656,199.264 88.688,200.796 88.688,200.796 88.907,202.249 87.672,201.749 87.672,201.749 85.516,200.374 84.828,201.671 84.828,201.671 83.547,204.28 83.328,205.202 83.328,205.202 82.781,206.718 81.422,206.702 81.422,206.702 79.75,206.749 79.063,206.061 79.063,206.061 78.516,205.67 77.735,206.311 77.735,206.311 75.469,208.092 75.032,207.061 75.032,207.061 74.313,205.467 73.126,206.139 73.126,206.139 67.642,207.905 65.142,208.03 65.142,208.03 63.314,207.905 62.986,207.639 62.986,207.639 62.767,208.327 63.142,209.842 63.142,209.842 63.048,212.467 60.736,210.467 60.736,210.467 59.845,209.373 59.767,209.201 59.689,209.029 59.126,209.08 58.283,211.219 58.283,211.219 56.955,214.483 53.814,213.905 53.814,213.905 51.892,212.093 50.517,212.593 49.142,213.093 46.892,212.812 46.658,211.781 46.424,210.75 46.642,209.781 45.08,209.703 43.518,209.625 42.236,208.469 42.033,207.656 41.83,206.843 40.517,205.265 41.924,205.265 43.331,205.265 44.893,205.64 44.955,204.515 45.017,203.39 45.549,194.031 45.549,194.031 45.549,194.031 45.377,193.672 45.096,193.672 44.815,193.672 44.768,193.219 44.752,192.594 44.736,191.969 44.955,186.953 43.549,186.797 42.143,186.641 42.377,183.688 42.361,182.828 42.345,181.968 42.595,176.609 40.58,175.531 40.58,175.531 40.08,174.843 40.955,174.234 41.83,173.625 40.986,172.937 40.267,172.578 39.548,172.219 37.876,171.953 38.251,168.75 38.251,168.75 39.032,166.594 36.595,164.719 34.158,162.844 33.923,162.297 33.97,161.61 34.017,160.923 33.892,160.204 34.97,160.844 36.048,161.484 38.861,162.61 36.845,160.719 34.829,158.828 34.626,158.797 34.564,159.078 34.502,159.359 34.257,160.625 33.965,159.672 33.673,158.719 33.329,156.922 33.751,157.016 34.173,157.11 34.485,157.235 34.704,156.672 34.923,156.109 36,155.688 36,156.812 36,157.936 35.828,158.781 36.906,158.671 37.984,158.561 37.625,157.983 37.625,157.171 37.625,156.359 37.172,150.593 34.906,149.655 34.906,149.655 32.656,146.639 33.734,146.03 34.812,145.421 36.968,144.483 36.187,141.436 35.406,138.389 35.343,136.936 35.781,136.358 36.219,135.78 36.469,134.999 36.484,134.67 36.499,134.341 37.39,134.108 37.859,133.936 38.328,133.764 38.187,134.795 37.906,135.436 37.625,136.077 38.062,135.952 39.015,134.874 39.968,133.796 45.281,128.936 46.609,128.358 46.609,128.358 46.921,127.889 46.953,127.53 46.985,127.171 47.406,127.311 47.937,127.327 48.468,127.343 49.906,127.921 50.062,126.671 50.218,125.421 51.093,124.827 52.39,125.452 53.687,126.077 55.015,126.046 55.437,125.311 55.859,124.576 56.296,124.483 57.046,124.467 57.796,124.451 59.327,123.967 59.702,122.67 60.077,121.373 61.124,120.045 62.296,121.467 62.296,121.467 63.015,122.217 63.593,120.326 63.593,120.326 63.89,119.904 65.452,119.81 67.014,119.716 71.655,119.372 71.89,116.763 71.89,116.763 71.812,115.044 73.406,114.029 73.406,114.029 76.625,112.388 76.015,111.513 76.015,111.513 75.171,108.591 76.015,107.325 76.859,106.059 76.499,104.591 76.515,103.934 76.531,103.277 77.281,103.215 77.656,103.106 78.031,102.997 79.25,101.997 79.312,101.653 79.374,101.309 79.953,101.403 80.093,102.387 80.233,103.371 82.218,107.231 82.874,105.684 83.53,104.137 83.265,103.84 82.39,104.231 82.39,104.231 82.421,103.215 82.437,102.262 82.453,101.309 82.016,99.375 83,98.672 83,98.672 84.016,97.391 85.109,98.672 86.202,99.953 86.812,99.625 86.64,98.328 86.468,97.031 86.499,96.031 87.531,95.109 87.531,95.109 88.219,94.515 88.265,94.234 88.311,93.953 88.765,94.328 89.39,95.015 90.015,95.702 90.546,95.515 89.968,94.468 89.39,93.421 89.484,93.452 90.593,93.452 91.702,93.452 91.655,92.921 91.281,91.952 91.281,91.952 90.656,90.436 91.656,90.514 92.656,90.592 92.015,90.217 91.859,89.764 91.703,89.311 91.734,89.061 92.937,89.139 94.14,89.217 94.453,88.592 94.687,87.608 94.921,86.624 95.625,86.749 96.484,86.749 97.343,86.749 99.812,86.343 99.922,86.171 100.032,85.999 100.391,86.718 100.5,87.265 100.609,87.812 101.062,88.827 101.578,89.046 102.094,89.265 103.328,91.046 103.219,91.608 103.11,92.17 102.125,96.014 103.266,95.264 104.407,94.514 104.047,94.295 103.907,93.655 103.767,93.015 103.938,92.014 104.532,92.03 105.126,92.046 106.279,92.052 106.279,92.052"
       id="Gebiet_1_2_"
       style="fill:none;stroke:#b7b7b7;stroke-width:10;stroke-miterlimit:1" /></g><g
     transform="matrix(1.14,0,0,1,-21.544732,-59.165877)"
     id="Gebiete"><path class="area"
       d="M 106.031,147.781 161.5,147.5 V 236 C 161.5,236 159.156,236.109 158.438,232.344 158.438,232.344 159.219,231.594 156.516,230.625 156.516,230.625 156.282,230.297 156.328,229.344 156.374,228.391 157.062,225.906 154.594,218.125 154.594,218.125 154.797,217.391 153.672,217.953 152.547,218.515 148.938,220.437 150.703,217.187 150.703,217.187 151.601,212.875 148.961,210.906 148.961,210.906 148.566,210.312 149.098,209.89 149.098,209.89 148.604,208.671 147.869,210.249 147.869,210.249 147.578,211.921 147.562,212.64 147.562,212.64 147.624,213.109 146.781,213.578 145.938,214.047 142.922,215.953 143.047,214.828 143.047,214.828 142.953,213.252 143.781,213.079 144.609,212.906 146.265,212.547 145.719,211.5 145.173,210.453 145.141,208.422 145.797,207.672 146.453,206.922 149.766,199.375 146.375,202.328 146.375,202.328 145.844,205.531 143.5,205.234 143.5,205.234 142.531,204.718 141.031,207.484 141.031,207.484 138.812,211.593 137.781,210.843 137.781,210.843 136.515,210.296 136.047,210.343 136.047,210.343 134.641,207.718 134.656,206.531 134.656,206.531 135.094,202.75 133.281,202.765 133.281,202.765 130.484,202.827 130.625,201.921 130.625,201.921 129.891,200.687 130.453,200.171 130.453,200.171 132.203,198.812 130.5,198.905 128.797,198.998 128.219,198.421 129.203,197.421 130.187,196.421 128.515,195.812 127.609,195.624 126.703,195.436 123.765,195.577 123.062,195.858 122.359,196.139 121.031,195.639 120.624,194.78 120.217,193.921 119.749,191.374 115.374,192.046 110.999,192.718 107.796,194.155 106.562,194.608 L 106.031,147.781 z"
       id="aus-6"
       style="fill: #CBCCCC; stroke:#ffffff;stroke-miterlimit:1" /><g class="area"
       id="aus-5"><path
         d="M 203.291,231.267 C 202.322,230.565 197.624,228.564 197.062,228.564 196.5,228.564 191.427,225.26 190.99,224.677 190.553,224.094 185.443,224.225 185.089,224.225 184.735,224.225 182.067,221.937 181.901,221.582 181.735,221.227 179.524,218.082 178.504,218 177.483,217.916 170.1,214.958 168.836,213.938 168.002,213.265 161.502,213.249 161.502,213.249 V 236 C 161.502,236 165.752,237.828 166.346,236.188 166.94,234.548 167.955,235.844 168.408,237.094 168.861,238.344 174.361,244.219 177.111,237.36 177.111,237.36 178.095,236.266 179.22,236.251 179.22,236.251 180.236,236.329 179.876,237.017 179.876,237.017 182.782,236.408 183.329,236.22 183.876,236.032 184.391,236.423 182.641,237.408 180.891,238.393 182.047,238.346 183.907,239.283 185.767,240.22 186.891,240.252 186.829,242.111 186.767,243.97 188.298,242.127 188.235,240.986 188.235,240.986 188.047,240.627 189.094,240.674 190.141,240.721 192.547,240.205 193.391,235.783 193.391,235.783 193.86,233.392 195.329,233.408 196.798,233.424 202.329,233.47 202.329,233.47 202.329,233.47 203.828,231.656 203.291,231.267 z"
         id="_x31__2_"
         style="fill: #CBCCCC; stroke:#ffffff;stroke-miterlimit:1" /><path
         d="M 173.792,245.876 175.021,248.647 C 175.021,248.647 176.688,246.668 176.021,245.459 175.354,244.25 174.542,245.022 173.792,245.876 z"
         id="path44"
         style="fill: #CBCCCC; stroke:#ffffff;stroke-miterlimit:1" /><path
         d="M 193.646,246.741 C 193.646,246.741 193.625,250.312 195.625,250.187 197.625,250.062 196.188,247.962 193.646,246.741 z"
         id="path46"
         style="fill: #CBCCCC; stroke:#ffffff;stroke-miterlimit:1" /><path
         d="M 177.918,253.833 C 177.918,253.833 178.564,252.145 178.564,251.771 178.564,251.397 189.71,257.229 195.502,252.979 195.502,252.979 197.523,260.583 195.814,261.458 195.814,261.458 193.084,261.435 194.543,266.456 194.543,266.456 195.877,270.249 192.96,268.852 192.96,268.852 191.731,266.248 191.148,268.727 191.148,268.727 190.107,273.415 185.94,271.06 185.94,271.06 186.086,269.186 184.898,268.414 184.898,268.414 179.94,264.289 183.023,262.289 183.023,262.289 183.815,261.914 181.752,261.56 181.752,261.56 180.293,260.872 179.793,257.706 179.793,257.706 178.688,254.105 177.918,253.833 z"
         id="path48"
         style="fill: #CBCCCC; stroke:#ffffff;stroke-miterlimit:1" /></g><path
       d="M 161.5,213.249 V 168.937 C 161.5,168.937 191.916,169.625 194.25,168.791 196.584,167.957 203.146,167.312 203.562,167.332 203.978,167.352 205.02,168.082 207.104,168.144 209.188,168.206 211.645,169.748 211.645,169.748 216.39,170.326 217.622,167.479 217.622,167.479 217.622,167.479 218.766,169.107 219.125,170.166 219.125,170.166 221.172,174.389 220.891,176.904 220.891,176.904 220.485,179.232 219.86,179.873 219.86,179.873 218.583,179.982 218.628,181.139 218.673,182.296 219.345,193.936 218.048,195.186 218.048,195.186 216.36,195.905 216.329,196.311 216.298,196.717 217.485,199.061 214.923,200.061 214.923,200.061 211.423,201.514 211.423,202.858 211.423,202.858 211.97,204.499 210.564,204.514 210.564,204.514 209.08,203.983 209.142,205.78 209.204,207.577 210.293,210.208 208.626,212.333 206.959,214.458 205.958,217.312 205.605,219.791 205.252,222.27 206.146,224.396 204.23,225.042 202.314,225.688 202.584,227.084 204.084,227.854 205.584,228.624 205.938,228.458 205.146,230.021 205.146,230.021 204.042,231.827 203.292,231.265 202.334,230.548 197.625,228.562 197.063,228.562 196.501,228.562 191.417,225.27 190.98,224.687 190.543,224.104 185.439,224.229 185.084,224.229 184.729,224.229 182.063,221.938 181.897,221.583 181.731,221.228 179.522,218.082 178.501,217.999 177.48,217.916 170.203,215.029 168.834,213.937 168.281,213.312 162.103,213.247 161.5,213.249 z"
       id="aus-4"
       style="fill: #CBCCCC; stroke:#ffffff;stroke-miterlimit:1" /><g class="area"
       id="aus-3"><path
         d="M 150.844,102.172 C 150.844,102.172 152.193,105.022 154.38,104.917 156.567,104.812 157.241,108.25 157.513,109.125 157.785,110 160.912,109.333 161.392,109.125 161.392,109.125 161.999,108.687 162.415,108.708 162.415,108.708 162.603,108.75 162.561,107.604 162.519,106.458 163.29,104.895 163.79,104.5 164.29,104.105 163.936,101.042 163.936,101.042 163.936,101.042 164.603,100.293 165.374,99.876 166.145,99.459 165.936,93.314 165.562,91.23 165.562,91.23 165.042,85.188 165.521,84.876 166,84.564 166.855,84.022 166.833,81.334 166.811,78.646 167.415,70.251 167.749,70.146 168.083,70.041 169.916,70.292 169.916,70.292 169.916,70.292 172.957,74.417 174.124,78.313 175.291,82.209 176.103,85.771 176.103,89.521 176.103,89.521 176.185,89.788 176.457,89.842 176.457,89.842 177.019,90.229 177.082,90.5 177.082,90.5 177.75,91.167 177.728,89.667 177.728,89.667 177.728,88.667 179.728,88.479 179.728,88.479 180.498,88.291 180.415,90.104 180.415,90.104 180.186,90.458 180.727,90.437 180.727,90.437 181.644,91.27 181.769,91.937 181.769,91.937 182.54,92.062 183.394,92.041 184.248,92.02 184.706,91.394 183.915,99.561 183.915,99.561 183.749,101.957 186.082,103.686 186.082,103.686 188.019,105.373 187.853,109.436 187.687,113.499 187.289,116.478 189.748,117.811 192.207,119.144 199.644,122.853 199.644,122.853 199.644,122.853 200.31,123.79 200.31,124.436 200.31,125.082 200.935,125.603 200.06,126.415 200.06,126.415 198.559,127.686 200.226,127.373 201.893,127.06 202.978,129.998 202.956,131.061 202.934,132.124 202.956,135.582 202.956,135.582 202.956,135.582 202.726,136.374 203.622,136.374 204.518,136.374 208.455,138.874 208.56,139.27 208.665,139.666 208.062,146.416 210.54,147.02 213.018,147.624 213.664,149.061 213.706,149.52 213.748,149.979 213.268,152.061 214.331,152.52 215.394,152.979 218.56,154.98 218.622,157.438 218.684,159.896 218.06,166.709 217.622,167.48 217.184,168.251 215.77,170.228 211.645,169.749 211.645,169.749 209.188,168.207 207.104,168.145 205.02,168.083 203.978,167.353 203.562,167.333 203.146,167.313 196.583,167.958 194.25,168.792 191.917,169.626 161.5,168.938 161.5,168.938 V 147.5 H 150.5 V 101.828 L 150.844,102.172 z"
         id="_x31__3_"
         style="fill: #CBCCCC; stroke:#ffffff;stroke-miterlimit:1" /><path
         d="M 155.812,101.516 C 155.812,101.516 157.546,100.985 157.343,102.797 157.14,104.609 156.999,104.766 155.812,103.266 154.625,101.766 155.297,101.587 155.812,101.516 z"
         id="path53"
         style="fill: #CBCCCC; stroke:#ffffff;stroke-miterlimit:1" /></g><g
       id="aus-2"><path
         d="M 150.5,147.5 V 101.828 C 150.5,101.828 149.031,98.625 146.906,98.594 144.781,98.563 142.781,98.063 142.812,97.188 142.843,96.313 140.624,94.813 139.031,94.563 139.031,94.563 138.531,94.407 138.531,92.938 138.531,91.469 138.469,89.75 139.093,89.282 139.717,88.814 140.124,88.313 140.124,86.907 140.124,86.907 140.249,85.282 140.062,84.782 140.062,84.782 139.5,84.47 141.968,84.532 141.968,84.532 142.78,84.751 142.812,83.626 142.844,82.501 141.718,80.845 142.843,80.438 142.843,80.438 144.781,80.126 144.218,78.063 144.218,78.063 143.406,76.782 143.812,76.344 143.812,76.344 145.187,75.188 140.781,77.094 140.781,77.094 139.781,77.875 139.593,77.094 139.593,77.094 139.905,75.656 137.499,76.188 135.093,76.72 130.218,75.532 129.437,74.75 129.437,74.75 128.278,73.688 128.342,73.406 128.342,73.406 128.25,72.812 126.875,73.937 126.875,73.937 126.125,75.593 124.969,73.562 124.969,73.562 122.75,71 120.344,71.624 120.344,71.624 119.156,72.686 121.906,74.03 124.656,75.374 125.625,76.374 125.531,76.874 125.437,77.374 125.312,78.405 124.562,77.686 123.812,76.967 124.187,78.061 124.156,78.655 124.125,79.249 123.656,79.467 122.437,78.467 121.218,77.467 118.187,76.811 117.843,76.842 117.499,76.873 116.593,77.092 116.468,78.186 116.343,79.28 115.374,78.592 115.187,78.124 115,77.656 113.843,76.343 113.499,80.093 113.499,80.093 112.811,82.593 113.343,83.624 113.343,83.624 113.999,84.186 112.593,83.936 112.593,83.936 111.187,83.342 111.124,85.592 111.124,85.592 111.686,87.717 109.78,88.342 109.78,88.342 107.78,88.592 108.78,90.342 108.78,90.342 111.374,92.654 109.499,93.092 109.499,93.092 107.124,93.467 106.999,92.873 L 106.277,92.052 106.03,147.78 150.5,147.5 z"
         id="Gebiet_5"
         style="fill: #CBCCCC; stroke:#ffffff;stroke-miterlimit:1" /><path
         d="M 141.5,86.484 C 141.5,86.484 141.266,90.156 142.297,89.531 143.328,88.906 145.094,88.043 145.094,88.043 145.094,88.043 144.344,86.906 144.282,86.765 144.22,86.624 143.438,84.999 142.704,85.718 141.97,86.437 141.5,86.484 141.5,86.484 z"
         id="path57"
         style="fill: #CBCCCC; stroke:#ffffff;stroke-miterlimit:1" /></g><path
       d="M 106.562,194.609 C 106.562,194.609 97.374,198.562 94.343,196.812 94.343,196.812 93.187,195.968 93.031,196.937 93.031,196.937 93.187,197.144 92.375,197.259 92.375,197.259 91.875,197.749 91.656,199.155 91.656,199.155 91.515,199.483 90,199.608 90,199.608 88.656,199.264 88.688,200.796 88.688,200.796 88.907,202.249 87.672,201.749 87.672,201.749 85.516,200.374 84.828,201.671 84.828,201.671 83.547,204.28 83.328,205.202 83.328,205.202 82.781,206.718 81.422,206.702 81.422,206.702 79.75,206.749 79.063,206.061 79.063,206.061 78.516,205.67 77.735,206.311 77.735,206.311 75.469,208.092 75.032,207.061 75.032,207.061 74.313,205.467 73.126,206.139 73.126,206.139 67.642,207.905 65.142,208.03 65.142,208.03 63.314,207.905 62.986,207.639 62.986,207.639 62.767,208.327 63.142,209.842 63.142,209.842 63.048,212.467 60.736,210.467 60.736,210.467 59.845,209.373 59.767,209.201 59.689,209.029 59.126,209.08 58.283,211.219 58.283,211.219 56.955,214.483 53.814,213.905 53.814,213.905 51.892,212.093 50.517,212.593 49.142,213.093 46.892,212.812 46.658,211.781 46.424,210.75 46.642,209.781 45.08,209.703 43.518,209.625 42.236,208.469 42.033,207.656 41.83,206.843 40.517,205.265 41.924,205.265 43.331,205.265 44.893,205.64 44.955,204.515 45.017,203.39 45.549,194.031 45.549,194.031 45.549,194.031 45.377,193.672 45.096,193.672 44.815,193.672 44.768,193.219 44.752,192.594 44.736,191.969 44.955,186.953 43.549,186.797 42.143,186.641 42.377,183.688 42.361,182.828 42.345,181.968 42.595,176.609 40.58,175.531 40.58,175.531 40.08,174.843 40.955,174.234 41.83,173.625 40.986,172.937 40.267,172.578 39.548,172.219 37.876,171.953 38.251,168.75 38.251,168.75 39.032,166.594 36.595,164.719 34.158,162.844 33.923,162.297 33.97,161.61 34.017,160.923 33.892,160.204 34.97,160.844 36.048,161.484 38.861,162.61 36.845,160.719 34.829,158.828 34.626,158.797 34.564,159.078 34.502,159.359 34.257,160.625 33.965,159.672 33.673,158.719 33.329,156.922 33.751,157.016 34.173,157.11 34.485,157.235 34.704,156.672 34.923,156.109 36,155.688 36,156.812 36,157.936 35.828,158.781 36.906,158.671 37.984,158.561 37.625,157.983 37.625,157.171 37.625,156.359 37.172,150.593 34.906,149.655 34.906,149.655 32.656,146.639 33.734,146.03 34.812,145.421 36.968,144.483 36.187,141.436 35.406,138.389 35.343,136.936 35.781,136.358 36.219,135.78 36.469,134.999 36.484,134.67 36.499,134.341 37.39,134.108 37.859,133.936 38.328,133.764 38.187,134.795 37.906,135.436 37.625,136.077 38.062,135.952 39.015,134.874 39.968,133.796 45.281,128.936 46.609,128.358 46.609,128.358 46.921,127.889 46.953,127.53 46.985,127.171 47.406,127.311 47.937,127.327 48.468,127.343 49.906,127.921 50.062,126.671 50.218,125.421 51.093,124.827 52.39,125.452 53.687,126.077 55.015,126.046 55.437,125.311 55.859,124.576 56.296,124.483 57.046,124.467 57.796,124.451 59.327,123.967 59.702,122.67 60.077,121.373 61.124,120.045 62.296,121.467 62.296,121.467 63.015,122.217 63.593,120.326 63.593,120.326 63.89,119.904 65.452,119.81 67.014,119.716 71.655,119.372 71.89,116.763 71.89,116.763 71.812,115.044 73.406,114.029 73.406,114.029 76.625,112.388 76.015,111.513 76.015,111.513 75.171,108.591 76.015,107.325 76.859,106.059 76.499,104.591 76.515,103.934 76.531,103.277 77.281,103.215 77.656,103.106 78.031,102.997 79.25,101.997 79.312,101.653 79.374,101.309 79.953,101.403 80.093,102.387 80.233,103.371 82.218,107.231 82.874,105.684 83.53,104.137 83.265,103.84 82.39,104.231 82.39,104.231 82.421,103.215 82.437,102.262 82.453,101.309 82.016,99.375 83,98.672 83,98.672 84.016,97.391 85.109,98.672 86.202,99.953 86.812,99.625 86.64,98.328 86.468,97.031 86.499,96.031 87.531,95.109 87.531,95.109 88.219,94.515 88.265,94.234 88.311,93.953 88.765,94.328 89.39,95.015 90.015,95.702 90.546,95.515 89.968,94.468 89.39,93.421 89.484,93.452 90.593,93.452 91.702,93.452 91.655,92.921 91.281,91.952 91.281,91.952 90.656,90.436 91.656,90.514 92.656,90.592 92.015,90.217 91.859,89.764 91.703,89.311 91.734,89.061 92.937,89.139 94.14,89.217 94.453,88.592 94.687,87.608 94.921,86.624 95.625,86.749 96.484,86.749 97.343,86.749 99.812,86.343 99.922,86.171 100.032,85.999 100.391,86.718 100.5,87.265 100.609,87.812 101.062,88.827 101.578,89.046 102.094,89.265 103.328,91.046 103.219,91.608 103.11,92.17 102.125,96.014 103.266,95.264 104.407,94.514 104.047,94.295 103.907,93.655 103.767,93.015 103.938,92.014 104.532,92.03 105.126,92.046 106.279,92.052 106.279,92.052 L 106.032,146.78 106.562,194.609 z"
       id="aus-1"
       style="fill: #CBCCCC; stroke:#ffffff;stroke-miterlimit:1" /></g><g
     transform="translate(-3.7395941,-59.165877)"
     id="Zahlen_1_"><g
       transform="translate(-56.593403,-32.522899)"
       id="Zahlen"><g
         transform="translate(176.844,451.062)"
         id="_x31__7_"><circle
           cx="-50.493"
           cy="-262.34799"
           r="4.7399998"
           id="shape29"
           style="fill:#ffffff;stroke:#ffffff;stroke-width:1.25;stroke-miterlimit:2" /><g
           id="g64"><path
             d="M -52.18,-264.452 C -51.642,-264.684 -51.131,-264.973 -50.652,-265.318 H -49.585 V -259.553 H -50.833 V -264.037 C -51.074,-263.856 -51.553,-263.559 -52.181,-263.304 V -264.452 L -52.18,-264.452 z"
             id="path66"
             style="fill:#20201e" /></g></g><g
         transform="translate(261.709,144.139)"
         id="_x32__1_"><circle
           cx="-76.879997"
           cy="7.8610001"
           r="4.7389998"
           id="shape31"
           style="fill:#ffffff;stroke:#ffffff;stroke-width:1.25;stroke-miterlimit:2" /><g
           id="g70"><path
             d="M -78.883,9.492 -77.386,8.129 C -77.122,7.889 -76.825,7.626 -76.519,7.253 -76.197,6.865 -76.122,6.684 -76.122,6.419 -76.122,5.981 -76.379,5.684 -76.808,5.684 -77.469,5.684 -77.527,6.362 -77.535,6.527 H -78.8 C -78.8,6.295 -78.8,5.865 -78.461,5.444 -78.13,5.031 -77.52,4.817 -76.817,4.817 -75.561,4.817 -74.866,5.494 -74.866,6.387 -74.866,6.982 -75.097,7.751 -77.593,9.759 -76.759,9.742 -76.659,9.734 -76.008,9.726 -75.123,9.71 -75.024,9.71 -74.834,9.701 V 10.66 H -78.883 V 9.492 z"
             id="path72"
             style="fill:#20201e" /></g></g><g
         transform="translate(708.634,145.66)"
         id="_x33__1_"><circle
           cx="-470.39401"
           cy="24.056"
           r="4.7389998"
           id="shape33"
           style="fill:#ffffff;stroke:#ffffff;stroke-width:1.25;stroke-miterlimit:2" /><g
           id="g76"><path
             d="M -471.164,25.282 C -471.156,25.463 -471.106,26.051 -470.421,26.051 -469.959,26.051 -469.677,25.713 -469.677,25.266 -469.677,24.415 -470.493,24.415 -471.098,24.415 V 23.448 C -470.519,23.431 -469.67,23.415 -469.67,22.588 -469.67,22.134 -470.007,21.902 -470.38,21.902 -470.734,21.902 -471.081,22.142 -471.081,22.621 H -472.346 C -472.321,22.365 -472.297,22.001 -472.008,21.646 -471.628,21.183 -471.017,21.01 -470.405,21.01 -468.933,21.01 -468.463,21.952 -468.463,22.58 -468.463,23.546 -469.314,23.811 -469.569,23.886 -469.388,23.943 -469.148,24.018 -468.884,24.241 -468.478,24.579 -468.411,25.001 -468.411,25.274 -468.411,26.25 -469.305,26.977 -470.502,26.977 -470.916,26.977 -471.519,26.886 -471.891,26.588 -472.403,26.166 -472.42,25.514 -472.42,25.282 H -471.164 L -471.164,25.282 z"
             id="path78"
             style="fill:#20201e" /></g></g><g
         transform="translate(739.642,568.684)"
         id="_x34__1_"><circle
           cx="-493.24301"
           cy="-339.397"
           r="4.7379999"
           id="shape35"
           style="fill:#ffffff;stroke:#ffffff;stroke-width:1.25;stroke-miterlimit:2" /><g
           id="g82"><path
             d="M -495.584,-337.857 V -338.972 L -493.27,-342.368 H -492.038 L -492.048,-338.807 H -491.263 V -337.856 H -492.048 V -336.6 H -493.271 V -337.856 H -495.584 z M -494.658,-338.783 H -493.204 V -340.302 C -493.204,-340.378 -493.194,-340.791 -493.187,-340.94 L -494.658,-338.783 z"
             id="path84"
             style="fill:#20201e" /></g></g><g
         transform="translate(511.279,336.315)"
         id="_x35__1_"><circle
           cx="-280.56799"
           cy="-75.056"
           r="4.7379999"
           transform="translate(5.4456954,0)"
           id="shape37"
           style="fill:#ffffff;stroke:#ffffff;stroke-width:1.25;stroke-miterlimit:2" /><g
           id="g88"><path
             d="M -275.8533,-73.682 C -275.8613,-73.549 -275.7533,-73.036 -275.1743,-73.036 -274.7283,-73.036 -274.3233,-73.361 -274.3233,-74.12 -274.3233,-74.673 -274.5383,-75.152 -275.0933,-75.152 -275.6463,-75.152 -275.7863,-74.708 -275.8273,-74.573 L -277.0253,-74.608 -276.8933,-78.021 H -273.3973 V -77.078 H -275.8013 L -275.8753,-75.647 C -275.6933,-75.805 -275.4223,-76.061 -274.7853,-76.061 -273.8583,-76.061 -273.0823,-75.383 -273.0823,-74.226 -273.0823,-73.242 -273.6603,-72.135 -275.1393,-72.135 -275.7433,-72.135 -276.3553,-72.292 -276.7513,-72.765 -277.0403,-73.112 -277.0653,-73.467 -277.0743,-73.679 L -275.8533,-73.682 -275.8533,-73.682 z"
             id="path90"
             style="fill:#20201e" /></g></g><g
         transform="translate(347.309,723.155)"
         id="_x36__1_"><circle
           cx="-158.11"
           cy="-514.60797"
           r="4.7399998"
           id="shape49"
           style="fill:#ffffff;stroke:#ffffff;stroke-width:1.25;stroke-miterlimit:2" /><g
           id="g94"><path
             d="M -157.252,-516.152 C -157.277,-516.564 -157.552,-516.72 -157.857,-516.72 -158.682,-516.72 -158.708,-515.693 -158.722,-515.102 -158.516,-515.29 -158.194,-515.563 -157.592,-515.563 -156.789,-515.563 -155.938,-514.994 -155.938,-513.737 -155.938,-513.101 -156.114,-512.639 -156.553,-512.233 -156.93,-511.878 -157.377,-511.697 -158.022,-511.697 -160.013,-511.697 -160.013,-513.629 -160.013,-514.315 -160.013,-515.471 -159.865,-516.671 -159.079,-517.251 -158.575,-517.63 -157.971,-517.655 -157.748,-517.655 -156.881,-517.655 -156.054,-517.21 -156.029,-516.152 H -157.252 z M -157.153,-513.654 C -157.153,-514.292 -157.483,-514.646 -157.898,-514.646 -158.106,-514.646 -158.733,-514.523 -158.733,-513.628 -158.733,-512.918 -158.352,-512.62 -157.946,-512.62 -157.592,-512.62 -157.153,-512.869 -157.153,-513.654 z"
             id="path96"
             style="fill:#20201e" /></g></g></g></g></svg>